{
  "file_name": "Gemfile",
  "file_path": "Gemfile",
  "size": 102,
  "encoding": "base64",
  "content_sha256": "d42fd8ae854567fa11a78cc9d4b92883b3dc4388c3acc2640465ddf3826e83c3",
  "ref": "05567c003c4a6de74f4d75e9b218ffa715f8ad5c",
  "blob_id": "b87f874659a8fb97f6f80d65917ddfd25a79d81f",
  "commit_id": "05567c003c4a6de74f4d75e9b218ffa715f8ad5c",
  "last_commit_id": "05567c003c4a6de74f4d75e9b218ffa715f8ad5c",
  "content": "IyBmcm96ZW5fc3RyaW5nX2xpdGVyYWw6IHRydWUKCnNvdXJjZSAiaHR0cHM6Ly9ydWJ5Z2Vtcy5vcmciCgpnZW0gImRlcGVuZGFib3Qtb21uaWJ1cyIsICJ+PiAwLjEzMy41IgpnZW0gInJ1Ym9jb3AiLCAifj4gMS4xMCIK"
}
