{
  "id": 2,
  "iid": 2,
  "project_id": 3,
  "web_url": "http://gitlab.com/test-repo/merge_requests/2",
  "sha": "88b0f12ac",
  "references": {
    "short": "!2",
    "relative": "!2",
    "full": "my-group/my-project!2"
  }
}
